…
``` r
# getting columns needed for plot 
plotdata <- select(nba2018_w_accuracy_index,team, accuracy)
plotdata <- (na.exclude(plotdata))
```

``` r
# manipulating data to get accuracy for each team
dat <- summarize(group_by(plotdata, team),
          accuracy = sum(accuracy))
dat
```

    ## # A tibble: 30 x 2
    ##    team  accuracy
    ##    <chr>    <dbl>
    ##  1 ATL      1.46 
    ##  2 BOS      1.07 
    ##  3 BRK      1.73 
    ##  4 CHI      0.821
    ##  5 CHO      1.26 
    ##  6 CLE      2.26 
    ##  7 DAL      2.96 
    ##  8 DEN      0.720
    ##  9 DET      0.608
    ## 10 GSW      0.500
    ## # ... with 20 more rows
…
